<svg xmlns="http://www.w3.org/2000/svg" width="41" height="27" viewBox="0 0 41 27">
    <g fill="none" fill-rule="nonzero" stroke="#F74545">
        <path d="M39.065 11.4H36.6V8.936A.934.934 0 0 0 35.665 8h-3.33a.934.934 0 0 0-.934.935V11.4h-2.466a.934.934 0 0 0-.935.934v3.33c0 .516.418.934.935.934H31.4v2.466c0 .517.418.935.934.935h3.33a.935.935 0 0 0 .934-.935V16.6h2.466a.934.934 0 0 0 .935-.934v-3.33a.934.934 0 0 0-.935-.934zM13.265 6.973c1.094 0 2.145.3 3.042.867l1.024.713a.892.892 0 0 0 1.145-.105l2.989-3.01a.926.926 0 0 0-.125-1.409l-1.737-1.21a.902.902 0 0 0-.11-.067l-1.683-.844a.875.875 0 0 0-.068-.031A12.13 12.13 0 0 0 13.203 1C9.983 1 6.945 2.257 4.65 4.538 2.319 6.855 1.023 10.006 1 13.41c-.022 3.404 1.233 6.573 3.533 8.922C6.816 24.663 10.055 26 13.42 26c3.328 0 6.452-1.314 8.568-3.605 1.677-1.815 2.706-4.24 2.976-7.01a.913.913 0 0 0 .005-.08l.03-2.489a.914.914 0 0 0-.01-.154l-.131-.85a.907.907 0 0 0-.892-.776H13.535a.91.91 0 0 0-.903.918v3.668a.91.91 0 0 0 .903.918h5.318c-.244.543-.628 1.116-1.114 1.65-1.059 1.165-2.639 1.833-4.334 1.833-1.73 0-3.388-.69-4.548-1.892-2.413-2.503-2.385-6.862.059-9.33a6.17 6.17 0 0 1 4.349-1.828z"/>
    </g>
</svg>
