<svg xmlns="http://www.w3.org/2000/svg" width="15" height="15" viewBox="0 0 15 15">
    <g fill="#E83C4D" fill-rule="nonzero">
        <path d="M5.857 4.25h5.893a.25.25 0 1 0 0-.5H5.857a.25.25 0 1 0 0 .5zM5.857 8h5.893a.25.25 0 1 0 0-.5H5.857a.25.25 0 1 0 0 .5zM5.857 11.75h5.893a.25.25 0 1 0 0-.5H5.857a.25.25 0 1 0 0 .5z"/>
        <path d="M14.75 0H.25A.25.25 0 0 0 0 .25v14.5c0 .138.112.25.25.25h14.5a.25.25 0 0 0 .25-.25V.25a.25.25 0 0 0-.25-.25zm-.25 14.5H.5V.5h14v14z"/>
        <path d="M3.125 4.619l.607-.32.607.32-.116-.676.492-.48-.68-.098-.303-.615-.303.615-.679.098.491.48zM3.125 8.39l.607-.32.607.32-.116-.677.492-.479-.68-.098-.303-.615-.303.615-.679.098.491.48zM3.125 12.25l.607-.32.607.32-.116-.676.492-.479-.68-.099-.303-.614-.303.614-.679.1.491.478z"/>
    </g>
</svg>
