<svg xmlns="http://www.w3.org/2000/svg" width="14" height="14" viewBox="0 0 14 14">
    <path fill="gray" fill-rule="nonzero" d="M13.877 13.286l-3.402-3.402a5.945 5.945 0 0 0 1.465-3.915A5.976 5.976 0 0 0 5.971 0a5.976 5.976 0 0 0-5.97 5.97c0 3.29 2.68 5.969 5.97 5.969a5.945 5.945 0 0 0 3.914-1.465l3.403 3.402a.409.409 0 0 0 .59 0 .42.42 0 0 0 0-.59zM.837 5.969A5.137 5.137 0 0 1 5.967.84a5.137 5.137 0 0 1 5.132 5.13 5.14 5.14 0 0 1-5.131 5.135A5.14 5.14 0 0 1 .837 5.969z"/>
</svg>
