<svg xmlns="http://www.w3.org/2000/svg" width="17" height="17" viewBox="0 0 17 17">
    <g fill="#E83C4D" fill-rule="nonzero">
        <path d="M16.12 6.711l-1.193-.202a6.733 6.733 0 0 0-.479-1.157l.703-.983c.298-.419.252-.99-.114-1.352L13.98 1.959a1.042 1.042 0 0 0-1.349-.113l-.987.702a6.663 6.663 0 0 0-1.2-.493L10.247.877A1.048 1.048 0 0 0 9.21 0H7.716C7.2 0 6.765.37 6.679.877l-.206 1.206a6.567 6.567 0 0 0-1.153.487l-.976-.703a1.042 1.042 0 0 0-.61-.195c-.28 0-.547.11-.742.308L1.93 3.038a1.05 1.05 0 0 0-.114 1.352l.71.998c-.195.372-.351.759-.472 1.16l-1.178.199A1.048 1.048 0 0 0 0 7.783v1.494c0 .515.37.951.877 1.037l1.206.205c.125.398.288.785.487 1.154l-.7.972c-.298.42-.252.99.114 1.353l1.058 1.057a1.042 1.042 0 0 0 1.348.114l.997-.71c.359.188.735.34 1.122.461l.199 1.193c.085.507.521.876 1.036.876h1.498c.514 0 .95-.369 1.036-.876l.202-1.193a6.733 6.733 0 0 0 1.157-.479l.983.703c.178.128.39.195.61.195.281 0 .544-.11.743-.309l1.057-1.057a1.05 1.05 0 0 0 .114-1.353l-.703-.986c.195-.373.359-.76.48-1.157l1.192-.199c.507-.085.876-.522.876-1.036V7.748a1.036 1.036 0 0 0-.87-1.037zm-.082 2.53a.092.092 0 0 1-.078.093l-1.49.248a.476.476 0 0 0-.384.352 5.681 5.681 0 0 1-.617 1.487.48.48 0 0 0 .021.522l.877 1.235a.097.097 0 0 1-.011.12l-1.058 1.058a.09.09 0 0 1-.067.028.087.087 0 0 1-.053-.017l-1.232-.877a.48.48 0 0 0-.522-.021 5.681 5.681 0 0 1-1.487.617.471.471 0 0 0-.351.384l-.252 1.49a.092.092 0 0 1-.092.078H7.748a.092.092 0 0 1-.093-.078l-.248-1.49a.476.476 0 0 0-.351-.384A5.9 5.9 0 0 1 5.6 13.49a.491.491 0 0 0-.24-.064.467.467 0 0 0-.278.089l-1.242.884a.106.106 0 0 1-.053.017.095.095 0 0 1-.068-.028L2.662 13.33a.096.096 0 0 1-.01-.12l.872-1.225a.486.486 0 0 0 .022-.525 5.628 5.628 0 0 1-.625-1.484.486.486 0 0 0-.383-.35L1.036 9.37a.092.092 0 0 1-.078-.093V7.783c0-.046.032-.085.078-.092l1.48-.249a.48.48 0 0 0 .387-.354 5.676 5.676 0 0 1 .607-1.491.474.474 0 0 0-.025-.518l-.884-1.242a.097.097 0 0 1 .011-.121L3.67 2.658a.09.09 0 0 1 .067-.028c.021 0 .04.007.053.018l1.225.873c.156.11.362.117.525.021.461-.277.962-.49 1.484-.625a.486.486 0 0 0 .35-.383l.256-1.501a.092.092 0 0 1 .093-.078h1.494c.046 0 .085.032.092.078l.249 1.48a.48.48 0 0 0 .355.387 5.76 5.76 0 0 1 1.522.624.48.48 0 0 0 .522-.021l1.224-.88a.106.106 0 0 1 .053-.018c.015 0 .043.004.068.028l1.057 1.058a.096.096 0 0 1 .011.12l-.876 1.232a.48.48 0 0 0-.022.522c.277.465.483.965.618 1.487a.471.471 0 0 0 .383.351l1.49.252a.092.092 0 0 1 .079.093v1.494h-.004z"/>
        <path d="M8.496 4.827A3.669 3.669 0 0 0 4.83 8.493a3.669 3.669 0 0 0 3.666 3.666 3.669 3.669 0 0 0 3.667-3.666 3.669 3.669 0 0 0-3.667-3.666zm0 6.374A2.71 2.71 0 0 1 5.79 8.493a2.71 2.71 0 0 1 2.707-2.708 2.71 2.71 0 0 1 2.708 2.708A2.71 2.71 0 0 1 8.496 11.2z"/>
    </g>
</svg>
