<svg xmlns="http://www.w3.org/2000/svg" width="21" height="20" viewBox="0 0 21 20">
    <g fill="#000" fill-rule="nonzero">
        <path d="M16.794 15.461a2.273 2.273 0 0 0-2.27 2.27c0 1.25 1.02 2.269 2.27 2.269a2.273 2.273 0 0 0 2.27-2.27 2.273 2.273 0 0 0-2.27-2.269zm0 3.631c-.75 0-1.361-.61-1.361-1.362 0-.75.61-1.361 1.361-1.361s1.362.61 1.362 1.361-.61 1.362-1.362 1.362zM7.716 15.461a2.273 2.273 0 0 0-2.27 2.27c0 1.25 1.02 2.269 2.27 2.269 1.251 0 2.27-1.019 2.27-2.27 0-1.25-1.019-2.269-2.27-2.269zm0 3.631c-.75 0-1.361-.61-1.361-1.362 0-.75.61-1.361 1.361-1.361s1.362.61 1.362 1.361-.61 1.362-1.362 1.362zM18.61 13.645H8.133a2.275 2.275 0 0 1-2.225-1.824L3.622.393a.454.454 0 0 0-.445-.365H.454a.454.454 0 0 0 0 .908h2.351L5.017 12a3.186 3.186 0 0 0 3.116 2.553H18.61a.454.454 0 0 0 0-.908z"/>
        <path d="M20.766 2.905a.455.455 0 0 0-.34-.153H4.086a.454.454 0 0 0 0 .908h15.826l-.646 5.161a1.365 1.365 0 0 1-1.351 1.193H5.447a.454.454 0 0 0 0 .908h12.468c1.142 0 2.11-.854 2.252-1.988l.709-5.672a.453.453 0 0 0-.11-.357z"/>
    </g>
</svg>
